module github.com/jarlefosen/oslobysykkel-sqlite

go 1.22.2

require modernc.org/sqlite v1.29.9

require (
	github.com/hashicorp/errwrap v1.1.0 // indirect
	github.com/hashicorp/go-multierror v1.1.1 // indirect
	go.uber.org/atomic v1.7.0 // indirect
)

require (
	github.com/dustin/go-humanize v1.0.1 // indirect
	github.com/golang-migrate/migrate/v4 v4.17.1
	github.com/google/uuid v1.6.0 // indirect
	github.com/hashicorp/golang-lru/v2 v2.0.7 // indirect
	github.com/mattn/go-isatty v0.0.20 // indirect
	github.com/ncruces/go-strftime v0.1.9 // indirect
	github.com/remyoudompheng/bigfft v0.0.0-20230129092748-24d4a6f8daec // indirect
	golang.org/x/sys v0.19.0 // indirect
	modernc.org/gc/v3 v3.0.0-20240107210532-573471604cb6 // indirect
	modernc.org/libc v1.49.3 // indirect
	modernc.org/mathutil v1.6.0 // indirect
	modernc.org/memory v1.8.0 // indirect
	modernc.org/strutil v1.2.0 // indirect
	modernc.org/token v1.1.0 // indirect
)
